Calculadora_Verilog/Bin2bcd/peripheral_binary_to_bcd_TB.vcd
$date
	Fri Nov 21 15:35:21 2025
$end
$version
	Icarus Verilog
$end
$timescale
	1ps
$end
$scope module peripheral_binary_to_bcd_TB $end
$var wire 32 ! data_output [31:0] $end
$var parameter 32 " PERIOD $end
$var reg 5 # address [4:0] $end
$var reg 1 $ chip_select $end
$var reg 1 % clock $end
$var reg 16 & data_input [15:0] $end
$var reg 1 ' read $end
$var reg 1 ( reset $end
$var reg 1 ) write $end
$scope module uut $end
$var wire 5 * address [4:0] $end
$var wire 1 $ chip_select $end
$var wire 1 % clock $end
$var wire 16 + data_input [15:0] $end
$var wire 1 ' read $end
$var wire 1 ( reset $end
$var wire 1 ) write $end
$var wire 1 , conversion_done $end
$var wire 20 - bcd_result [19:0] $end
$var reg 32 . data_output [31:0] $end
$var reg 16 / input_register [15:0] $end
$var reg 5 0 select_signal [4:0] $end
$var reg 1 1 start_conversion $end
$scope module binary_to_bcd0 $end
$var wire 16 2 binary_input [15:0] $end
$var wire 1 % clock $end
$var wire 1 ( reset $end
$var wire 1 1 start $end
$var wire 1 3 zero_flag $end
$var wire 4 4 units [3:0] $end
$var wire 4 5 thousands [3:0] $end
$var wire 4 6 tens [3:0] $end
$var wire 4 7 ten_thousands [3:0] $end
$var wire 1 8 shift_enable $end
$var wire 1 9 select_signal $end
$var wire 20 : mux_output [19:0] $end
$var wire 5 ; msb_bits [4:0] $end
$var wire 5 < load_signal [4:0] $end
$var wire 1 = load_msb $end
$var wire 1 > load_enable $end
$var wire 4 ? hundreds [3:0] $end
$var wire 1 , conversion_done $end
$var wire 20 @ bcd_output [19:0] $end
$var wire 20 A adder_output [19:0] $end
$var wire 1 B add_enable $end
$scope module adder0 $end
$var wire 4 C in_A [3:0] $end
$var wire 4 D in_B [3:0] $end
$var reg 4 E Result [3:0] $end
$upscope $end
$scope module adder1 $end
$var wire 4 F in_A [3:0] $end
$var wire 4 G in_B [3:0] $end
$var reg 4 H Result [3:0] $end
$upscope $end
$scope module adder2 $end
$var wire 4 I in_A [3:0] $end
$var wire 4 J in_B [3:0] $end
$var reg 4 K Result [3:0] $end
$upscope $end
$scope module adder3 $end
$var wire 4 L in_A [3:0] $end
$var wire 4 M in_B [3:0] $end
$var reg 4 N Result [3:0] $end
$upscope $end
$scope module adder4 $end
$var wire 4 O in_A [3:0] $end
$var wire 4 P in_B [3:0] $end
$var reg 4 Q Result [3:0] $end
$upscope $end
$scope module control0 $end
$var wire 1 % clock $end
$var wire 1 ( reset $end
$var wire 1 1 start $end
$var wire 1 3 zero $end
$var parameter 3 R STATE_ADD $end
$var parameter 3 S STATE_CHECK $end
$var parameter 3 T STATE_END $end
$var parameter 3 U STATE_LOAD $end
$var parameter 3 V STATE_SHIFT $end
$var parameter 3 W STATE_START $end
$var reg 1 B add_enable $end
$var reg 3 X current_state [2:0] $end
$var reg 6 Y delay_count [5:0] $end
$var reg 1 , finished $end
$var reg 1 > load $end
$var reg 1 = load_msb $end
$var reg 1 9 select $end
$var reg 1 8 shift $end
$upscope $end
$scope module counter0 $end
$var wire 1 % clock $end
$var wire 1 8 decrement $end
$var wire 1 > load $end
$var reg 5 Z count [4:0] $end
$var reg 1 3 zero $end
$upscope $end
$scope module msb_register0 $end
$var wire 1 % clock $end
$var wire 5 [ input_data [4:0] $end
$var wire 1 = load $end
$var wire 1 B output_enable $end
$var wire 1 > reset $end
$var reg 5 \ internal_register [4:0] $end
$var reg 5 ] output_data [4:0] $end
$upscope $end
$scope module mux0 $end
$var wire 4 ^ input_a [3:0] $end
$var wire 4 _ input_b [3:0] $end
$var wire 1 9 select $end
$var reg 4 ` output_data [3:0] $end
$upscope $end
$scope module mux1 $end
$var wire 4 a input_a [3:0] $end
$var wire 4 b input_b [3:0] $end
$var wire 1 9 select $end
$var reg 4 c output_data [3:0] $end
$upscope $end
$scope module mux2 $end
$var wire 4 d input_a [3:0] $end
$var wire 4 e input_b [3:0] $end
$var wire 1 9 select $end
$var reg 4 f output_data [3:0] $end
$upscope $end
$scope module mux3 $end
$var wire 4 g input_a [3:0] $end
$var wire 4 h input_b [3:0] $end
$var wire 1 9 select $end
$var reg 4 i output_data [3:0] $end
$upscope $end
$scope module mux4 $end
$var wire 4 j input_a [3:0] $end
$var wire 4 k input_b [3:0] $end
$var wire 1 9 select $end
$var reg 4 l output_data [3:0] $end
$upscope $end
$scope module shift_register0 $end
$var wire 1 % clock $end
$var wire 16 m input_data1 [15:0] $end
$var wire 20 n input_data2 [19:0] $end
$var wire 5 o load_select [4:0] $end
$var wire 1 > reset_load $end
$var wire 1 8 shift_enable $end
$var wire 20 p output_data [19:0] $end
$var reg 36 q shift_register [35:0] $end
$upscope $end
$upscope $end
$upscope $end
$scope begin TEST_CASE $end
$upscope $end
$upscope $end
$enddefinitions $end
$comment Show the parameter values. $end
$dumpall
b0 W
b10 V
b100 U
b101 T
b1 S
b11 R
b10100 "
$end
#0
$dumpvars
bx q
bx p
bx o
bx n
bx m
b11 l
b1011 k
b11 j
b11 i
b1011 h
b11 g
b11 f
b1011 e
b11 d
b11 c
b1011 b
b11 a
b11 `
b1011 _
b11 ^
bx ]
bx \
bx [
b1000 Z
bx Y
bx X
bx Q
b11 P
bx O
bx N
b11 M
bx L
bx K
b11 J
bx I
bx H
b11 G
bx F
bx E
b11 D
bx C
xB
bx A
bx @
bx ?
x>
x=
bx <
bx ;
b110011001100110011 :
x9
x8
bx 7
bx 6
bx 5
bx 4
03
bx 2
x1
b0 0
bx /
bx .
bx -
x,
b0 +
b0 *
0)
0(
0'
b0 &
0%
0$
b0 #
bx !
$end
#10000
b0 <
b0 ]
b0 o
0B
1>
08
09
0=
0,
b0 Y
b0 X
b0 /
b0 2
b0 m
01
b0 !
b0 .
1(
1%
#20000
b0 ;
b0 [
b11 E
b11 H
b11 K
b11 N
b110011001100110011 A
b110011001100110011 n
b11 Q
b0 4
b0 C
b0 6
b0 F
b0 ?
b0 I
b0 5
b0 L
b0 -
b0 @
b0 7
b0 O
b0 p
b10000 Z
b0 \
b0 q
0%
#30000
0(
1%
#40000
0%
#50000
1%
#60000
0%
#70000
1%
#80000
0%
#90000
1%
#100000
0%
#110000
b1100101011111110 /
b1100101011111110 2
b1100101011111110 m
1%
b1 0
b100 #
b100 *
b1100101011111110 &
b1100101011111110 +
1)
1$
#120000
b1100101011111110 q
0%
#130000
1%
b0 0
0)
0$
#140000
0%
#150000
1%
#160000
0%
#170000
1%
#180000
0%
#190000
1%
#200000
0%
#210000
1%
#220000
0%
#230000
1%
#240000
0%
#250000
1%
#260000
0%
#270000
11
1%
b100 0
b1100 #
b1100 *
b1 &
b1 +
1)
1$
#280000
0%
#290000
b11111 ;
b11111 [
b1011 E
b1011 H
b1011 K
b1011 N
b10111011101110111011 A
b10111011101110111011 n
b1011 Q
b1011 D
b1011 G
b1011 J
b1011 M
b1011 P
b1011 `
b1011 c
b1011 f
b1011 i
b10111011101110111011 :
b1011 l
0>
18
19
1=
b10 X
1%
b0 0
0)
0$
#300000
b10111011101110111100 A
b10111011101110111100 n
b1100 E
b1 -
b1 @
b1 4
b1 C
b1 p
b1111 Z
b11111 \
b11001010111111100 q
0%
#310000
08
b1 X
1%
#320000
0%
#330000
b0 ;
b0 [
b100 E
b11 H
b11 K
b11 N
b110011001100110100 A
b110011001100110100 n
b11 Q
b11 D
b11 G
b11 J
b11 M
b11 P
b11 `
b11 c
b11 f
b11 i
b110011001100110011 :
b11 l
1B
09
0=
b100 X
1%
#340000
0%
#350000
0B
b11 X
1%
#360000
0%
#370000
b11111 ;
b11111 [
b1100 E
b1011 H
b1011 K
b1011 N
b10111011101110111100 A
b10111011101110111100 n
b1011 Q
b1011 D
b1011 G
b1011 J
b1011 M
b1011 P
b1011 `
b1011 c
b1011 f
b1011 i
b10111011101110111011 :
b1011 l
18
19
1=
b10 X
1%
#380000
b10111011101110111110 A
b10111011101110111110 n
b1110 E
b11 -
b11 @
b11 4
b11 C
b11 p
b1110 Z
b110010101111111000 q
0%
#390000
08
b1 X
1%
#400000
0%
#410000
b0 ;
b0 [
b110 E
b11 H
b11 K
b11 N
b110011001100110110 A
b110011001100110110 n
b11 Q
b11 D
b11 G
b11 J
b11 M
b11 P
b11 `
b11 c
b11 f
b11 i
b110011001100110011 :
b11 l
1B
09
0=
b100 X
1%
#420000
0%
#430000
0B
b11 X
1%
#440000
0%
#450000
b11111 ;
b11111 [
b1110 E
b1011 H
b1011 K
b1011 N
b10111011101110111110 A
b10111011101110111110 n
b1011 Q
b1011 D
b1011 G
b1011 J
b1011 M
b1011 P
b1011 `
b1011 c
b1011 f
b1011 i
b10111011101110111011 :
b1011 l
18
19
1=
b10 X
1%
#460000
b11110 ;
b11110 [
b10111011101110110001 A
b10111011101110110001 n
b1 E
b110 -
b110 @
b110 4
b110 C
b110 p
b1101 Z
b1100101011111110000 q
0%
#470000
08
b1 X
1%
#480000
b11110 \
0%
#490000
b1 ;
b1 [
b1001 E
b11 H
b11 K
b11 N
b110011001100111001 A
b110011001100111001 n
b11 Q
b11 D
b11 G
b11 J
b11 M
b11 P
b1 <
b1 ]
b1 o
b11 `
b11 c
b11 f
b11 i
b110011001100110011 :
b11 l
1B
09
0=
b100 X
1%
#500000
b110011001100111100 A
b110011001100111100 n
b1100 E
b1001 -
b1001 @
b1001 4
b1001 C
b1001 p
b10010101011111110000 q
0%
#510000
b0 <
b0 ]
b0 o
0B
b11 X
1%
#520000
0%
#530000
b11110 ;
b11110 [
b100 E
b1011 H
b1011 K
b1011 N
b10111011101110110100 A
b10111011101110110100 n
b1011 Q
b1011 D
b1011 G
b1011 J
b1011 M
b1011 P
b1011 `
b1011 c
b1011 f
b1011 i
b10111011101110111011 :
b1011 l
18
19
1=
b10 X
1%
#540000
b11111 ;
b11111 [
b1101 E
b10111011101111001101 A
b10111011101111001101 n
b1100 H
b10 4
b10 C
b10010 -
b10010 @
b1 6
b1 F
b10010 p
b1100 Z
b100101010111111100000 q
0%
#550000
08
b1 X
1%
#560000
b11111 \
0%
#570000
b0 ;
b0 [
b101 E
b100 H
b11 K
b11 N
b110011001101000101 A
b110011001101000101 n
b11 Q
b11 D
b11 G
b11 J
b11 M
b11 P
b11 `
b11 c
b11 f
b11 i
b110011001100110011 :
b11 l
1B
09
0=
b100 X
1%
#580000
0%
#590000
0B
b11 X
1%
#600000
0%
#610000
b11111 ;
b11111 [
b1101 E
b1100 H
b1011 K
b1011 N
b10111011101111001101 A
b10111011101111001101 n
b1011 Q
b1011 D
b1011 G
b1011 J
b1011 M
b1011 P
b1011 `
b1011 c
b1011 f
b1011 i
b10111011101110111011 :
b1011 l
18
19
1=
b10 X
1%
#620000
b11110 ;
b11110 [
b0 E
b10111011101111010000 A
b10111011101111010000 n
b1101 H
b101 4
b101 C
b100101 -
b100101 @
b10 6
b10 F
b100101 p
b1011 Z
b1001010101111111000000 q
0%
#630000
08
b1 X
1%
#640000
b11110 \
0%
#650000
b1 ;
b1 [
b1000 E
b101 H
b11 K
b11 N
b110011001101011000 A
b110011001101011000 n
b11 Q
b11 D
b11 G
b11 J
b11 M
b11 P
b1 <
b1 ]
b1 o
b11 `
b11 c
b11 f
b11 i
b110011001100110011 :
b11 l
1B
09
0=
b100 X
1%
#660000
b110011001101011011 A
b110011001101011011 n
b1011 E
b101000 -
b101000 @
b1000 4
b1000 C
b101000 p
b1010000101111111000000 q
0%
#670000
b0 <
b0 ]
b0 o
0B
b11 X
1%
#680000
0%
#690000
b11110 ;
b11110 [
b11 E
b1101 H
b1011 K
b1011 N
b10111011101111010011 A
b10111011101111010011 n
b1011 Q
b1011 D
b1011 G
b1011 J
b1011 M
b1011 P
b1011 `
b1011 c
b1011 f
b1011 i
b10111011101110111011 :
b1011 l
18
19
1=
b10 X
1%
#700000
b11101 ;
b11101 [
b1011 E
b10111011101100001011 A
b10111011101100001011 n
b0 H
b0 4
b0 C
b1010000 -
b1010000 @
b101 6
b101 F
b1010000 p
b1010 Z
b10100001011111110000000 q
0%
#710000
08
b1 X
1%
#720000
b11101 \
0%
#730000
b10 ;
b10 [
b11 E
b1000 H
b11 K
b11 N
b110011001110000011 A
b110011001110000011 n
b11 Q
b11 D
b11 G
b11 J
b11 M
b11 P
b10 <
b10 ]
b10 o
b11 `
b11 c
b11 f
b11 i
b110011001100110011 :
b11 l
1B
09
0=
b100 X
1%
#740000
b110011001110110011 A
b110011001110110011 n
b1011 H
b10000000 -
b10000000 @
b1000 6
b1000 F
b10000000 p
b100000001011111110000000 q
0%
#750000
b0 <
b0 ]
b0 o
0B
b11 X
1%
#760000
0%
#770000
b11101 ;
b11101 [
b1011 E
b11 H
b1011 K
b1011 N
b10111011101100111011 A
b10111011101100111011 n
b1011 Q
b1011 D
b1011 G
b1011 J
b1011 M
b1011 P
b1011 `
b1011 c
b1011 f
b1011 i
b10111011101110111011 :
b1011 l
18
19
1=
b10 X
1%
#780000
b11111 ;
b11111 [
b1100 E
b1011 H
b10111011110010111100 A
b10111011110010111100 n
b1100 K
b1 4
b1 C
b0 6
b0 F
b100000001 -
b100000001 @
b1 ?
b1 I
b100000001 p
b1001 Z
b1000000010111111100000000 q
0%
#790000
08
b1 X
1%
#800000
b11111 \
0%
#810000
b0 ;
b0 [
b100 E
b11 H
b100 K
b11 N
b110011010000110100 A
b110011010000110100 n
b11 Q
b11 D
b11 G
b11 J
b11 M
b11 P
b11 `
b11 c
b11 f
b11 i
b110011001100110011 :
b11 l
1B
09
0=
b100 X
1%
#820000
0%
#830000
0B
b11 X
1%
#840000
0%
#850000
b11111 ;
b11111 [
b1100 E
b1011 H
b1100 K
b1011 N
b10111011110010111100 A
b10111011110010111100 n
b1011 Q
b1011 D
b1011 G
b1011 J
b1011 M
b1011 P
b1011 `
b1011 c
b1011 f
b1011 i
b10111011101110111011 :
b1011 l
18
19
1=
b10 X
1%
#860000
b1101 E
b10111011110110111101 A
b10111011110110111101 n
b1101 K
b10 4
b10 C
b1000000010 -
b1000000010 @
b10 ?
b10 I
b1000000010 p
b1000 Z
b10000000101111111000000000 q
0%
#870000
08
b1 X
1%
#880000
0%
#890000
b0 ;
b0 [
b101 E
b11 H
b101 K
b11 N
b110011010100110101 A
b110011010100110101 n
b11 Q
b11 D
b11 G
b11 J
b11 M
b11 P
b11 `
b11 c
b11 f
b11 i
b110011001100110011 :
b11 l
1B
09
0=
b100 X
1%
#900000
0%
#910000
0B
b11 X
1%
#920000
0%
#930000
b11111 ;
b11111 [
b1101 E
b1011 H
b1101 K
b1011 N
b10111011110110111101 A
b10111011110110111101 n
b1011 Q
b1011 D
b1011 G
b1011 J
b1011 M
b1011 P
b1011 `
b1011 c
b1011 f
b1011 i
b10111011101110111011 :
b1011 l
18
19
1=
b10 X
1%
#940000
b11110 ;
b11110 [
b0 E
b10111011111110110000 A
b10111011111110110000 n
b1111 K
b101 4
b101 C
b10000000101 -
b10000000101 @
b100 ?
b100 I
b10000000101 p
b111 Z
b100000001011111110000000000 q
0%
#950000
08
b1 X
1%
#960000
b11110 \
0%
#970000
b1 ;
b1 [
b1000 E
b11 H
b111 K
b11 N
b110011011100111000 A
b110011011100111000 n
b11 Q
b11 D
b11 G
b11 J
b11 M
b11 P
b1 <
b1 ]
b1 o
b11 `
b11 c
b11 f
b11 i
b110011001100110011 :
b11 l
1B
09
0=
b100 X
1%
#980000
b110011011100111011 A
b110011011100111011 n
b1011 E
b10000001000 -
b10000001000 @
b1000 4
b1000 C
b10000001000 p
b100000010001111110000000000 q
0%
#990000
b0 <
b0 ]
b0 o
0B
b11 X
1%
#1000000
0%
#1010000
b11110 ;
b11110 [
b11 E
b1011 H
b1111 K
b1011 N
b10111011111110110011 A
b10111011111110110011 n
b1011 Q
b1011 D
b1011 G
b1011 J
b1011 M
b1011 P
b1011 `
b1011 c
b1011 f
b1011 i
b10111011101110111011 :
b1011 l
18
19
1=
b10 X
1%
#1020000
b11011 ;
b11011 [
b1100 E
b1100 H
b10111011001111001100 A
b10111011001111001100 n
b11 K
b1 4
b1 C
b1 6
b1 F
b100000010001 -
b100000010001 @
b1000 ?
b1000 I
b100000010001 p
b110 Z
b1000000100011111100000000000 q
0%
#1030000
08
b1 X
1%
#1040000
b11011 \
0%
#1050000
b100 ;
b100 [
b100 E
b100 H
b1011 K
b11 N
b110011101101000100 A
b110011101101000100 n
b11 Q
b11 D
b11 G
b11 J
b11 M
b11 P
b100 <
b100 ]
b100 o
b11 `
b11 c
b11 f
b11 i
b110011001100110011 :
b11 l
1B
09
0=
b100 X
1%
#1060000
b110011111001000100 A
b110011111001000100 n
b1110 K
b101100010001 -
b101100010001 @
b1011 ?
b1011 I
b101100010001 p
b1011000100011111100000000000 q
0%
#1070000
b0 <
b0 ]
b0 o
0B
b11 X
1%
#1080000
0%
#1090000
b11011 ;
b11011 [
b1100 E
b1100 H
b110 K
b1011 N
b10111011011011001100 A
b10111011011011001100 n
b1011 Q
b1011 D
b1011 G
b1011 J
b1011 M
b1011 P
b1011 `
b1011 c
b1011 f
b1011 i
b10111011101110111011 :
b1011 l
18
19
1=
b10 X
1%
#1100000
b1110 E
b1101 H
b1 K
b10111100000111011110 A
b10111100000111011110 n
b1100 N
b11 4
b11 C
b10 6
b10 F
b110 ?
b110 I
b1011000100011 -
b1011000100011 @
b1 5
b1 L
b1011000100011 p
b101 Z
b10110001000111111000000000000 q
0%
#1110000
08
b1 X
1%
#1120000
0%
#1130000
b100 ;
b100 [
b110 E
b101 H
b1001 K
b100 N
b110100100101010110 A
b110100100101010110 n
b11 Q
b11 D
b11 G
b11 J
b11 M
b11 P
b100 <
b100 ]
b100 o
b11 `
b11 c
b11 f
b11 i
b110011001100110011 :
b11 l
1B
09
0=
b100 X
1%
#1140000
b110100110001010110 A
b110100110001010110 n
b1100 K
b1100100100011 -
b1100100100011 @
b1001 ?
b1001 I
b1100100100011 p
b11001001000111111000000000000 q
0%
#1150000
b0 <
b0 ]
b0 o
0B
b11 X
1%
#1160000
0%
#1170000
b11011 ;
b11011 [
b1110 E
b1101 H
b100 K
b1100 N
b10111100010011011110 A
b10111100010011011110 n
b1011 Q
b1011 D
b1011 G
b1011 J
b1011 M
b1011 P
b1011 `
b1011 c
b1011 f
b1011 i
b10111011101110111011 :
b1011 l
18
19
1=
b10 X
1%
#1180000
b11110 ;
b11110 [
b10 E
b1111 H
b1101 K
b10111110110111110010 A
b10111110110111110010 n
b1110 N
b111 4
b111 C
b100 6
b100 F
b10 ?
b10 I
b11001001000111 -
b11001001000111 @
b11 5
b11 L
b11001001000111 p
b100 Z
b110010010001111110000000000000 q
0%
#1190000
08
b1 X
1%
#1200000
b11110 \
0%
#1210000
b1 ;
b1 [
b1010 E
b111 H
b101 K
b110 N
b110110010101111010 A
b110110010101111010 n
b11 Q
b11 D
b11 G
b11 J
b11 M
b11 P
b1 <
b1 ]
b1 o
b11 `
b11 c
b11 f
b11 i
b110011001100110011 :
b11 l
1B
09
0=
b100 X
1%
#1220000
b110110010101111101 A
b110110010101111101 n
b1101 E
b11001001001010 -
b11001001001010 @
b1010 4
b1010 C
b11001001001010 p
b110010010010101110000000000000 q
0%
#1230000
b0 <
b0 ]
b0 o
0B
b11 X
1%
#1240000
0%
#1250000
b11110 ;
b11110 [
b101 E
b1111 H
b1101 K
b1110 N
b10111110110111110101 A
b10111110110111110101 n
b1011 Q
b1011 D
b1011 G
b1011 J
b1011 M
b1011 P
b1011 `
b1011 c
b1011 f
b1011 i
b10111011101110111011 :
b1011 l
18
19
1=
b10 X
1%
#1260000
b10100 ;
b10100 [
b0 E
b100 H
b1111 K
b10110001111101000000 A
b10110001111101000000 n
b1 N
b101 4
b101 C
b1001 6
b1001 F
b100 ?
b100 I
b110010010010101 -
b110010010010101 @
b110 5
b110 L
b110010010010101 p
b11 Z
b1100100100101011100000000000000 q
0%
#1270000
08
b1 X
1%
#1280000
b10100 \
0%
#1290000
b1011 ;
b1011 [
b1000 E
b1100 H
b111 K
b1001 N
b111001011111001000 A
b111001011111001000 n
b11 Q
b11 D
b11 G
b11 J
b11 M
b11 P
b1011 <
b1011 ]
b1011 o
b11 `
b11 c
b11 f
b11 i
b110011001100110011 :
b11 l
1B
09
0=
b100 X
1%
#1300000
b1011 E
b1111 H
b111100011111111011 A
b111100011111111011 n
b1100 N
b1000 4
b1000 C
b1100 6
b1100 F
b1001010011001000 -
b1001010011001000 @
b1001 5
b1001 L
b1001010011001000 p
b10010100110010001100000000000000 q
0%
#1310000
b0 <
b0 ]
b0 o
0B
b11 X
1%
#1320000
0%
#1330000
b10100 ;
b10100 [
b11 E
b111 H
b1111 K
b100 N
b10110100111101110011 A
b10110100111101110011 n
b1011 Q
b1011 D
b1011 G
b1011 J
b1011 M
b1011 P
b1011 `
b1011 c
b1011 f
b1011 i
b10111011101110111011 :
b1011 l
18
19
1=
b10 X
1%
#1340000
b11001 ;
b11001 [
b1100 E
b100 H
b100 K
b1101 N
b11001101010001001100 A
b11001101010001001100 n
b1100 Q
b1 4
b1 C
b1001 6
b1001 F
b1001 ?
b1001 I
b10 5
b10 L
b10010100110010001 -
b10010100110010001 @
b1 7
b1 O
b10010100110010001 p
b10 Z
b100101001100100011000000000000000 q
0%
#1350000
08
b1 X
1%
#1360000
b11001 \
0%
#1370000
b110 ;
b110 [
b100 E
b1100 H
b1100 K
b101 N
b1000101110011000100 A
b1000101110011000100 n
b100 Q
b11 D
b11 G
b11 J
b11 M
b11 P
b110 <
b110 ]
b110 o
b11 `
b11 c
b11 f
b11 i
b110011001100110011 :
b11 l
1B
09
0=
b100 X
1%
#1380000
b1111 H
b1000101111111110100 A
b1000101111111110100 n
b1111 K
b1100 6
b1100 F
b10010110011000001 -
b10010110011000001 @
b1100 ?
b1100 I
b10010110011000001 p
b100101100110000011000000000000000 q
0%
#1390000
b0 <
b0 ]
b0 o
0B
b11 X
1%
#1400000
0%
#1410000
b11001 ;
b11001 [
b1100 E
b111 H
b111 K
b1101 N
b11001101011101111100 A
b11001101011101111100 n
b1100 Q
b1011 D
b1011 G
b1011 J
b1011 M
b1011 P
b1011 `
b1011 c
b1011 f
b1011 i
b10111011101110111011 :
b1011 l
18
19
1=
b10 X
1%
#1420000
b10001 ;
b10001 [
b1110 E
b11 H
b100 K
b0 N
b11010000010000111110 A
b11010000010000111110 n
b1101 Q
b11 4
b11 C
b1000 6
b1000 F
b1001 ?
b1001 I
b101 5
b101 L
b100101100110000011 -
b100101100110000011 @
b10 7
b10 O
b100101100110000011 p
b1 Z
b1001011001100000110000000000000000 q
0%
#1430000
08
b1 X
1%
#1440000
b10001 \
0%
#1450000
b1110 ;
b1110 [
b110 E
b1011 H
b1100 K
b1000 N
b1011000110010110110 A
b1011000110010110110 n
b101 Q
b11 D
b11 G
b11 J
b11 M
b11 P
b1110 <
b1110 ]
b1110 o
b11 `
b11 c
b11 f
b11 i
b110011001100110011 :
b11 l
1B
09
0=
b100 X
1%
#1460000
b1110 H
b1111 K
b1011011111111100110 A
b1011011111111100110 n
b1011 N
b1011 6
b1011 F
b1100 ?
b1100 I
b101000110010110011 -
b101000110010110011 @
b1000 5
b1000 L
b101000110010110011 p
b1010001100101100110000000000000000 q
0%
#1470000
b0 <
b0 ]
b0 o
0B
b11 X
1%
#1480000
0%
#1490000
b10001 ;
b10001 [
b1110 E
b110 H
b111 K
b11 N
b11010011011101101110 A
b11010011011101101110 n
b1101 Q
b1011 D
b1011 G
b1011 J
b1011 M
b1011 P
b1011 `
b1011 c
b1011 f
b1011 i
b10111011101110111011 :
b1011 l
18
19
1=
b10 X
1%
#1500000
b1000 ;
b1000 [
b1 E
b1 H
b100 K
b1100 N
b1100010000010001 A
b1100010000010001 n
b0 Q
b110 4
b110 C
b110 6
b110 F
b1001 ?
b1001 I
b1 5
b1 L
b1010001100101100110 -
b1010001100101100110 @
b101 7
b101 O
b1010001100101100110 p
b0 Z
b10100011001011001100000000000000000 q
0%
#1510000
08
b1 X
1%
#1520000
b1000 \
13
0%
#1530000
b10111 ;
b10111 [
b1001 E
b1001 H
b1100 K
b100 N
b10000100110010011001 A
b10000100110010011001 n
b1000 Q
b11 D
b11 G
b11 J
b11 M
b11 P
b1000 0
b11 `
b11 c
b11 f
b11 i
b110011001100110011 :
b11 l
b10000 #
b10000 *
1'
1$
09
0=
1,
b101 X
1%
#1540000
0%
#1550000
b1 Y
1%
b0 0
0'
0$
#1560000
0%
#1570000
b10 Y
b1 !
b1 .
1%
b10000 0
b10100 #
b10100 *
1'
1$
#1580000
0%
#1590000
b11 Y
1%
b0 0
0'
0$
#1600000
0%
#1610000
b100 Y
1%
#1620000
0%
#1630000
b101 Y
1%
#1640000
0%
#1650000
b110 Y
1%
#1660000
0%
#1670000
b111 Y
1%
#1680000
0%
#1690000
b1000 Y
1%
#1700000
0%
#1710000
b1001 Y
1%
#1720000
0%
#1730000
b1010 Y
1%
#1740000
0%
#1750000
b1011 Y
1%
#1760000
0%
#1770000
b1100 Y
1%
#1780000
0%
#1790000
b1101 Y
1%
#1800000
0%
#1810000
b1110 Y
1%
#1820000
0%
#1830000
b1111 Y
1%
#1840000
0%
#1850000
b10000 Y
1%
#1860000
0%
#1870000
b10001 Y
1%
#1880000
0%
#1890000
b10010 Y
1%
#1900000
0%
#1910000
b10011 Y
1%
#1920000
0%
#1930000
b10100 Y
1%
#1940000
0%
#1950000
b10101 Y
1%
#1960000
0%
#1970000
b10110 Y
1%
#1980000
0%
#1990000
b10111 Y
1%
