Calculadora_Verilog/Bcd2bin/prueba_periferico_bcd2bin.vcd
$date
	Fri Nov 21 15:24:42 2025
$end
$version
	Icarus Verilog
$end
$timescale
	1ps
$end
$scope module prueba_periferico_bcd2bin $end
$var wire 32 ! dato_salida [31:0] $end
$var parameter 32 " PERIODO $end
$var reg 20 # dato_entrada [19:0] $end
$var reg 5 $ direccion [4:0] $end
$var reg 1 % escribir $end
$var reg 1 & habilitacion_chip $end
$var reg 1 ' leer $end
$var reg 1 ( reloj $end
$var reg 1 ) reset $end
$scope module uut $end
$var wire 20 * dato_entrada [19:0] $end
$var wire 5 + direccion [4:0] $end
$var wire 1 % escribir $end
$var wire 1 & habilitacion_chip $end
$var wire 1 ' leer $end
$var wire 1 ( reloj $end
$var wire 1 ) reset $end
$var wire 16 , resultado_binario [15:0] $end
$var wire 1 - conversion_terminada $end
$var reg 32 . dato_salida [31:0] $end
$var reg 1 / iniciar_conversion $end
$var reg 20 0 registro_entrada [19:0] $end
$var reg 5 1 selector [4:0] $end
$scope module convertidor_bcd_binario0 $end
$var wire 20 2 entrada_bcd [19:0] $end
$var wire 1 / inicio $end
$var wire 1 ( reloj $end
$var wire 1 ) reset $end
$var wire 1 - terminado $end
$var wire 1 3 senal_suma $end
$var wire 1 4 senal_seleccion $end
$var wire 20 5 senal_mux [19:0] $end
$var wire 1 6 senal_fin_contador $end
$var wire 1 7 senal_desplazamiento $end
$var wire 5 8 senal_carga_registro [4:0] $end
$var wire 1 9 senal_carga_msb $end
$var wire 20 : senal_carga_entrada [19:0] $end
$var wire 1 ; senal_carga $end
$var wire 5 < senal_bits_significativos [4:0] $end
$var wire 16 = resultado_bin [15:0] $end
$var wire 4 > digito_unidades [3:0] $end
$var wire 4 ? digito_millar [3:0] $end
$var wire 4 @ digito_decenas_millar [3:0] $end
$var wire 4 A digito_decenas [3:0] $end
$var wire 4 B digito_centenas [3:0] $end
$scope module contador0 $end
$var wire 1 ( reloj $end
$var wire 1 7 decrementar $end
$var wire 1 ; carga $end
$var reg 5 C contador_interno [4:0] $end
$var reg 1 6 fin_contador $end
$upscope $end
$scope module controlador0 $end
$var wire 1 6 fin_contador $end
$var wire 1 / inicio $end
$var wire 1 ( reloj $end
$var wire 1 ) reset $end
$var parameter 3 D CARGAR_A2 $end
$var parameter 3 E DESPLAZAR_DECIMAL $end
$var parameter 3 F FINAL $end
$var parameter 3 G INICIO $end
$var parameter 3 H SUMAR $end
$var parameter 3 I VERIFICAR $end
$var reg 1 ; cargar $end
$var reg 1 9 cargar_msb $end
$var reg 6 J contador_temporal [5:0] $end
$var reg 1 7 desplazar $end
$var reg 3 K estado_actual [2:0] $end
$var reg 1 4 seleccionar $end
$var reg 1 3 sumar $end
$var reg 1 - terminado $end
$upscope $end
$scope module registro0 $end
$var wire 1 7 desplazar $end
$var wire 20 L entrada_reg1 [19:0] $end
$var wire 20 M entrada_reg2 [19:0] $end
$var wire 1 ( reloj $end
$var wire 1 ; reset_carga $end
$var wire 16 N salida_reg2 [15:0] $end
$var wire 20 O salida_reg [19:0] $end
$var wire 5 P carga_a2 [4:0] $end
$var reg 36 Q datos [35:0] $end
$upscope $end
$scope module registro_msb0 $end
$var wire 1 9 carga $end
$var wire 5 R entrada [4:0] $end
$var wire 1 3 habilitar_salida $end
$var wire 1 ( reloj $end
$var wire 1 ; reset $end
$var reg 5 S contador_interno [4:0] $end
$var reg 5 T salida [4:0] $end
$upscope $end
$scope module selector0 $end
$var wire 4 U entrada_a [3:0] $end
$var wire 4 V entrada_b [3:0] $end
$var wire 1 4 seleccion $end
$var reg 4 W salida [3:0] $end
$upscope $end
$scope module selector1 $end
$var wire 4 X entrada_a [3:0] $end
$var wire 4 Y entrada_b [3:0] $end
$var wire 1 4 seleccion $end
$var reg 4 Z salida [3:0] $end
$upscope $end
$scope module selector2 $end
$var wire 4 [ entrada_a [3:0] $end
$var wire 4 \ entrada_b [3:0] $end
$var wire 1 4 seleccion $end
$var reg 4 ] salida [3:0] $end
$upscope $end
$scope module selector3 $end
$var wire 4 ^ entrada_a [3:0] $end
$var wire 4 _ entrada_b [3:0] $end
$var wire 1 4 seleccion $end
$var reg 4 ` salida [3:0] $end
$upscope $end
$scope module selector4 $end
$var wire 4 a entrada_a [3:0] $end
$var wire 4 b entrada_b [3:0] $end
$var wire 1 4 seleccion $end
$var reg 4 c salida [3:0] $end
$upscope $end
$scope module sumador0 $end
$var wire 4 d in_A [3:0] $end
$var wire 4 e in_B [3:0] $end
$var reg 4 f Result [3:0] $end
$upscope $end
$scope module sumador1 $end
$var wire 4 g in_A [3:0] $end
$var wire 4 h in_B [3:0] $end
$var reg 4 i Result [3:0] $end
$upscope $end
$scope module sumador2 $end
$var wire 4 j in_A [3:0] $end
$var wire 4 k in_B [3:0] $end
$var reg 4 l Result [3:0] $end
$upscope $end
$scope module sumador3 $end
$var wire 4 m in_A [3:0] $end
$var wire 4 n in_B [3:0] $end
$var reg 4 o Result [3:0] $end
$upscope $end
$scope module sumador4 $end
$var wire 4 p in_A [3:0] $end
$var wire 4 q in_B [3:0] $end
$var reg 4 r Result [3:0] $end
$upscope $end
$upscope $end
$upscope $end
$scope begin CASO_PRUEBA $end
$upscope $end
$upscope $end
$enddefinitions $end
$comment Show the parameter values. $end
$dumpall
b1 I
b11 H
b0 G
b101 F
b10 E
b100 D
b10100 "
$end
#0
$dumpvars
bx r
b1101 q
bx p
bx o
b1101 n
bx m
bx l
b1101 k
bx j
bx i
b1101 h
bx g
bx f
b1101 e
bx d
b1101 c
b1011 b
b1101 a
b1101 `
b1011 _
b1101 ^
b1101 ]
b1011 \
b1101 [
b1101 Z
b1011 Y
b1101 X
b1101 W
b1011 V
b1101 U
bx T
bx S
bx R
bx Q
bx P
bx O
bx N
bx M
bx L
bx K
bx J
b1000 C
bx B
bx A
bx @
bx ?
bx >
bx =
bx <
x;
bx :
x9
bx 8
x7
06
b11011101110111011101 5
x4
x3
bx 2
b0 1
bx 0
x/
bx .
x-
bx ,
b0 +
b0 *
0)
0(
0'
0&
0%
b0 $
b0 #
bx !
$end
#10000
b0 8
b0 P
b0 T
03
1;
07
04
09
0-
b0 J
b0 K
b0 0
b0 2
b0 L
0/
b0 !
b0 .
1)
1(
#20000
b11111 <
b11111 R
b1101 f
b1101 i
b1101 l
b1101 o
b11011101110111011101 :
b11011101110111011101 M
b1101 r
b0 >
b0 d
b0 A
b0 g
b0 B
b0 j
b0 ?
b0 m
b0 @
b0 p
b0 O
b0 ,
b0 =
b0 N
b10000 C
b0 S
b0 Q
0(
#30000
0)
1(
#40000
0(
#50000
1(
#60000
0(
#70000
1(
#80000
0(
#90000
1(
#100000
0(
#110000
b10010001101000101 0
b10010001101000101 2
b10010001101000101 L
1(
b1 1
b100 $
b100 +
b10010001101000101 #
b10010001101000101 *
1%
1&
#120000
b11000 <
b11000 R
b10 f
b1 i
b0 l
b1111 o
b11101111000000010010 :
b11101111000000010010 M
b1110 r
b101 >
b101 d
b100 A
b100 g
b11 B
b11 j
b10 ?
b10 m
b1 @
b1 p
b10010001101000101 O
b100100011010001010000000000000000 Q
0(
#130000
1(
b0 1
0%
0&
#140000
0(
#150000
1(
#160000
0(
#170000
1(
#180000
0(
#190000
1(
#200000
0(
#210000
1(
#220000
0(
#230000
1(
#240000
0(
#250000
1(
#260000
0(
#270000
1/
1(
b100 1
b1100 $
b1100 +
b1 #
b1 *
1%
1&
#280000
0(
#290000
b11110 <
b11110 R
b0 f
b1111 i
b1110 l
b1101 o
b11001101111011110000 :
b11001101111011110000 M
b1100 r
b1011 e
b1011 h
b1011 k
b1011 n
b1011 q
b1011 W
b1011 Z
b1011 ]
b1011 `
b10111011101110111011 5
b1011 c
0;
17
14
19
b10 K
1(
b0 1
0%
0&
#300000
b10101 <
b10101 R
b1101 f
b101 i
b1100 l
b100 o
b10110100110001011101 :
b10110100110001011101 M
b1011 r
b10 >
b10 d
b1010 A
b1010 g
b1 B
b1 j
b1001 ?
b1001 m
b0 @
b0 p
b1001000110100010 O
b1000000000000000 ,
b1000000000000000 =
b1000000000000000 N
b1111 C
b11110 S
b10010001101000101000000000000000 Q
0(
#310000
07
b1 K
1(
#320000
b10101 S
0(
#330000
b1111 f
b111 i
b1110 l
b110 o
b11010110111001111111 :
b11010110111001111111 M
b1101 r
b1101 e
b1101 h
b1101 k
b1101 n
b1101 q
b1010 8
b1010 P
b1010 T
b1101 W
b1101 Z
b1101 ]
b1101 `
b11011101110111011101 5
b1101 c
13
04
09
b100 K
1(
#340000
b100 i
b11010011111001001111 :
b11010011111001001111 M
b11 o
b111 A
b111 g
b110 ?
b110 m
b110000101110010 O
b1100001011100101000000000000000 Q
0(
#350000
b0 8
b0 P
b0 T
03
b11 K
1(
#360000
0(
#370000
b1101 f
b10 i
b1100 l
b1 o
b10110001110000101101 :
b10110001110000101101 M
b1011 r
b1011 e
b1011 h
b1011 k
b1011 n
b1011 q
b1011 W
b1011 Z
b1011 ]
b1011 `
b10111011101110111011 5
b1011 c
17
14
19
b10 K
1(
#380000
b11100 <
b11100 R
b100 f
b110 i
b1011 l
b10111110101101100100 :
b10111110101101100100 M
b1110 o
b1001 >
b1001 d
b1011 A
b1011 g
b0 B
b0 j
b11 ?
b11 m
b11000010111001 O
b100000000000000 ,
b100000000000000 =
b100000000000000 N
b1110 C
b110000101110010100000000000000 Q
0(
#390000
07
b1 K
1(
#400000
b11100 S
0(
#410000
b10110 <
b10110 R
b110 f
b1000 i
b1101 l
b0 o
b11010000110110000110 :
b11010000110110000110 M
b1101 r
b1101 e
b1101 h
b1101 k
b1101 n
b1101 q
b11 8
b11 P
b11 T
b1101 W
b1101 Z
b1101 ]
b1101 `
b11011101110111011101 5
b1101 c
13
04
09
b100 K
1(
#420000
b10100 <
b10100 R
b11 f
b11010000110101010011 :
b11010000110101010011 M
b101 i
b110 >
b110 d
b1000 A
b1000 g
b11000010000110 O
b110000100001100100000000000000 Q
0(
#430000
b0 8
b0 P
b0 T
03
b11 K
1(
#440000
0(
#450000
b11100 <
b11100 R
b1 f
b11 i
b1011 l
b1110 o
b10111110101100110001 :
b10111110101100110001 M
b1011 r
b1011 e
b1011 h
b1011 k
b1011 n
b1011 q
b1011 W
b1011 Z
b1011 ]
b1011 `
b10111011101110111011 5
b1011 c
17
14
19
b10 K
1(
#460000
b11011 <
b11011 R
b1110 f
b1111 i
b11 l
b10111100001111111110 :
b10111100001111111110 M
b1100 o
b11 >
b11 d
b100 A
b100 g
b1000 B
b1000 j
b1 ?
b1 m
b1100001000011 O
b10000000000000 ,
b10000000000000 =
b10000000000000 N
b1101 C
b11000010000110010000000000000 Q
0(
#470000
07
b1 K
1(
#480000
b11011 S
0(
#490000
b11000 <
b11000 R
b0 f
b1 i
b101 l
b1110 o
b11011110010100010000 :
b11011110010100010000 M
b1101 r
b1101 e
b1101 h
b1101 k
b1101 n
b1101 q
b100 8
b100 P
b100 T
b1101 W
b1101 Z
b1101 ]
b1101 `
b11011101110111011101 5
b1101 c
13
04
09
b100 K
1(
#500000
b11011110001000010000 :
b11011110001000010000 M
b10 l
b101 B
b101 j
b1010101000011 O
b10101010000110010000000000000 Q
0(
#510000
b0 8
b0 P
b0 T
03
b11 K
1(
#520000
0(
#530000
b11011 <
b11011 R
b1110 f
b1111 i
b0 l
b1100 o
b10111100000011111110 :
b10111100000011111110 M
b1011 r
b1011 e
b1011 h
b1011 k
b1011 n
b1011 q
b1011 W
b1011 Z
b1011 ]
b1011 `
b10111011101110111011 5
b1011 c
17
14
19
b10 K
1(
#540000
b11001 <
b11001 R
b1100 f
b101 i
b101 l
b10111011010101011100 :
b10111011010101011100 M
b1011 o
b1 >
b1 d
b1010 A
b1010 g
b1010 B
b1010 j
b0 ?
b0 m
b101010100001 O
b1001000000000000 ,
b1001000000000000 =
b1001000000000000 N
b1100 C
b1010101000011001000000000000 Q
0(
#550000
07
b1 K
1(
#560000
b11001 S
0(
#570000
b1110 f
b111 i
b111 l
b1101 o
b11011101011101111110 :
b11011101011101111110 M
b1101 r
b1101 e
b1101 h
b1101 k
b1101 n
b1101 q
b110 8
b110 P
b110 T
b1101 W
b1101 Z
b1101 ]
b1101 `
b11011101110111011101 5
b1101 c
13
04
09
b100 K
1(
#580000
b100 i
b11011101010001001110 :
b11011101010001001110 M
b100 l
b111 A
b111 g
b111 B
b111 j
b11101110001 O
b111011100011001000000000000 Q
0(
#590000
b0 8
b0 P
b0 T
03
b11 K
1(
#600000
0(
#610000
b1100 f
b10 i
b10 l
b1011 o
b10111011001000101100 :
b10111011001000101100 M
b1011 r
b1011 e
b1011 h
b1011 k
b1011 n
b1011 q
b1011 W
b1011 Z
b1011 ]
b1011 `
b10111011101110111011 5
b1011 c
17
14
19
b10 K
1(
#620000
b11100 <
b11100 R
b11 f
b110 i
b10111011111001100011 :
b10111011111001100011 M
b1110 l
b1000 >
b1000 d
b1011 A
b1011 g
b11 B
b11 j
b1110111000 O
b1100100000000000 ,
b1100100000000000 =
b1100100000000000 N
b1011 C
b11101110001100100000000000 Q
0(
#630000
07
b1 K
1(
#640000
b11100 S
0(
#650000
b11010 <
b11010 R
b101 f
b1000 i
b0 l
b1101 o
b11011101000010000101 :
b11011101000010000101 M
b1101 r
b1101 e
b1101 h
b1101 k
b1101 n
b1101 q
b11 8
b11 P
b11 T
b1101 W
b1101 Z
b1101 ]
b1101 `
b11011101110111011101 5
b1101 c
13
04
09
b100 K
1(
#660000
b11000 <
b11000 R
b10 f
b11011101000001010010 :
b11011101000001010010 M
b101 i
b101 >
b101 d
b1000 A
b1000 g
b1110000101 O
b11100001011100100000000000 Q
0(
#670000
b0 8
b0 P
b0 T
03
b11 K
1(
#680000
0(
#690000
b11100 <
b11100 R
b0 f
b11 i
b1110 l
b1011 o
b10111011111000110000 :
b10111011111000110000 M
b1011 r
b1011 e
b1011 h
b1011 k
b1011 n
b1011 q
b1011 W
b1011 Z
b1011 ]
b1011 `
b10111011101110111011 5
b1011 c
17
14
19
b10 K
1(
#700000
b11101 <
b11101 R
b1101 f
b111 i
b10111011110001111101 :
b10111011110001111101 M
b1100 l
b10 >
b10 d
b1100 A
b1100 g
b1 B
b1 j
b111000010 O
b1110010000000000 ,
b1110010000000000 =
b1110010000000000 N
b1010 C
b1110000101110010000000000 Q
0(
#710000
07
b1 K
1(
#720000
b11101 S
0(
#730000
b11111 <
b11111 R
b1111 f
b1001 i
b1110 l
b1101 o
b11011101111010011111 :
b11011101111010011111 M
b1101 r
b1101 e
b1101 h
b1101 k
b1101 n
b1101 q
b10 8
b10 P
b10 T
b1101 W
b1101 Z
b1101 ]
b1101 `
b11011101110111011101 5
b1101 c
13
04
09
b100 K
1(
#740000
b11101 <
b11101 R
b11011101111001101111 :
b11011101111001101111 M
b110 i
b1001 A
b1001 g
b110010010 O
b1100100101110010000000000 Q
0(
#750000
b0 8
b0 P
b0 T
03
b11 K
1(
#760000
0(
#770000
b1101 f
b100 i
b1100 l
b1011 o
b10111011110001001101 :
b10111011110001001101 M
b1011 r
b1011 e
b1011 h
b1011 k
b1011 n
b1011 q
b1011 W
b1011 Z
b1011 ]
b1011 `
b10111011101110111011 5
b1011 c
17
14
19
b10 K
1(
#780000
b11100 <
b11100 R
b100 f
b111 i
b10111011101101110100 :
b10111011101101110100 M
b1011 l
b1001 >
b1001 d
b1100 A
b1100 g
b0 B
b0 j
b11001001 O
b111001000000000 ,
b111001000000000 =
b111001000000000 N
b1001 C
b110010010111001000000000 Q
0(
#790000
07
b1 K
1(
#800000
b11100 S
0(
#810000
b11110 <
b11110 R
b110 f
b1001 i
b1101 l
b1101 o
b11011101110110010110 :
b11011101110110010110 M
b1101 r
b1101 e
b1101 h
b1101 k
b1101 n
b1101 q
b11 8
b11 P
b11 T
b1101 W
b1101 Z
b1101 ]
b1101 `
b11011101110111011101 5
b1101 c
13
04
09
b100 K
1(
#820000
b11100 <
b11100 R
b11 f
b11011101110101100011 :
b11011101110101100011 M
b110 i
b110 >
b110 d
b1001 A
b1001 g
b10010110 O
b100101100111001000000000 Q
0(
#830000
b0 8
b0 P
b0 T
03
b11 K
1(
#840000
0(
#850000
b1 f
b100 i
b1011 l
b1011 o
b10111011101101000001 :
b10111011101101000001 M
b1011 r
b1011 e
b1011 h
b1011 k
b1011 n
b1011 q
b1011 W
b1011 Z
b1011 ]
b1011 `
b10111011101110111011 5
b1011 c
17
14
19
b10 K
1(
#860000
b11110 <
b11110 R
b110 f
b10111011101111110110 :
b10111011101111110110 M
b1111 i
b1011 >
b1011 d
b100 A
b100 g
b1001011 O
b11100100000000 ,
b11100100000000 =
b11100100000000 N
b1000 C
b10010110011100100000000 Q
0(
#870000
07
b1 K
1(
#880000
b11110 S
0(
#890000
b11101 <
b11101 R
b1000 f
b1 i
b1101 l
b1101 o
b11011101110100011000 :
b11011101110100011000 M
b1101 r
b1101 e
b1101 h
b1101 k
b1101 n
b1101 q
b1 8
b1 P
b1 T
b1101 W
b1101 Z
b1101 ]
b1101 `
b11011101110111011101 5
b1101 c
13
04
09
b100 K
1(
#900000
b11100 <
b11100 R
b11011101110100010101 :
b11011101110100010101 M
b101 f
b1000 >
b1000 d
b1001000 O
b10010000011100100000000 Q
0(
#910000
b0 8
b0 P
b0 T
03
b11 K
1(
#920000
0(
#930000
b11110 <
b11110 R
b11 f
b1111 i
b1011 l
b1011 o
b10111011101111110011 :
b10111011101111110011 M
b1011 r
b1011 e
b1011 h
b1011 k
b1011 n
b1011 q
b1011 W
b1011 Z
b1011 ]
b1011 `
b10111011101110111011 5
b1011 c
17
14
19
b10 K
1(
#940000
b11111 <
b11111 R
b1111 f
b10111011101111011111 :
b10111011101111011111 M
b1101 i
b100 >
b100 d
b10 A
b10 g
b100100 O
b1110010000000 ,
b1110010000000 =
b1110010000000 N
b111 C
b1001000001110010000000 Q
0(
#950000
07
b1 K
1(
#960000
b11111 S
0(
#970000
b11110 <
b11110 R
b1 f
b1111 i
b1101 l
b1101 o
b11011101110111110001 :
b11011101110111110001 M
b1101 r
b1101 e
b1101 h
b1101 k
b1101 n
b1101 q
b1101 W
b1101 Z
b1101 ]
b1101 `
b11011101110111011101 5
b1101 c
13
04
09
b100 K
1(
#980000
0(
#990000
03
b11 K
1(
#1000000
0(
#1010000
b11111 <
b11111 R
b1111 f
b1101 i
b1011 l
b1011 o
b10111011101111011111 :
b10111011101111011111 M
b1011 r
b1011 e
b1011 h
b1011 k
b1011 n
b1011 q
b1011 W
b1011 Z
b1011 ]
b1011 `
b10111011101110111011 5
b1011 c
17
14
19
b10 K
1(
#1020000
b1101 f
b10111011101111001101 :
b10111011101111001101 M
b1100 i
b10 >
b10 d
b1 A
b1 g
b10010 O
b111001000000 ,
b111001000000 =
b111001000000 N
b110 C
b100100000111001000000 Q
0(
#1030000
07
b1 K
1(
#1040000
0(
#1050000
b1111 f
b1110 i
b1101 l
b1101 o
b11011101110111101111 :
b11011101110111101111 M
b1101 r
b1101 e
b1101 h
b1101 k
b1101 n
b1101 q
b1101 W
b1101 Z
b1101 ]
b1101 `
b11011101110111011101 5
b1101 c
13
04
09
b100 K
1(
#1060000
0(
#1070000
03
b11 K
1(
#1080000
0(
#1090000
b1101 f
b1100 i
b1011 l
b1011 o
b10111011101111001101 :
b10111011101111001101 M
b1011 r
b1011 e
b1011 h
b1011 k
b1011 n
b1011 q
b1011 W
b1011 Z
b1011 ]
b1011 `
b10111011101110111011 5
b1011 c
17
14
19
b10 K
1(
#1100000
b11110 <
b11110 R
b100 f
b10111011101110110100 :
b10111011101110110100 M
b1011 i
b1001 >
b1001 d
b0 A
b0 g
b1001 O
b11100100000 ,
b11100100000 =
b11100100000 N
b101 C
b10010000011100100000 Q
0(
#1110000
07
b1 K
1(
#1120000
b11110 S
0(
#1130000
b110 f
b1101 i
b1101 l
b1101 o
b11011101110111010110 :
b11011101110111010110 M
b1101 r
b1101 e
b1101 h
b1101 k
b1101 n
b1101 q
b1 8
b1 P
b1 T
b1101 W
b1101 Z
b1101 ]
b1101 `
b11011101110111011101 5
b1101 c
13
04
09
b100 K
1(
#1140000
b11011101110111010011 :
b11011101110111010011 M
b11 f
b110 >
b110 d
b110 O
b1100000011100100000 Q
0(
#1150000
b0 8
b0 P
b0 T
03
b11 K
1(
#1160000
0(
#1170000
b1 f
b1011 i
b1011 l
b1011 o
b10111011101110110001 :
b10111011101110110001 M
b1011 r
b1011 e
b1011 h
b1011 k
b1011 n
b1011 q
b1011 W
b1011 Z
b1011 ]
b1011 `
b10111011101110111011 5
b1011 c
17
14
19
b10 K
1(
#1180000
b11111 <
b11111 R
b10111011101110111110 :
b10111011101110111110 M
b1110 f
b11 >
b11 d
b11 O
b1110010000 ,
b1110010000 =
b1110010000 N
b100 C
b110000001110010000 Q
0(
#1190000
07
b1 K
1(
#1200000
b11111 S
0(
#1210000
b11110 <
b11110 R
b0 f
b1101 i
b1101 l
b1101 o
b11011101110111010000 :
b11011101110111010000 M
b1101 r
b1101 e
b1101 h
b1101 k
b1101 n
b1101 q
b1101 W
b1101 Z
b1101 ]
b1101 `
b11011101110111011101 5
b1101 c
13
04
09
b100 K
1(
#1220000
0(
#1230000
03
b11 K
1(
#1240000
0(
#1250000
b11111 <
b11111 R
b1110 f
b1011 i
b1011 l
b1011 o
b10111011101110111110 :
b10111011101110111110 M
b1011 r
b1011 e
b1011 h
b1011 k
b1011 n
b1011 q
b1011 W
b1011 Z
b1011 ]
b1011 `
b10111011101110111011 5
b1011 c
17
14
19
b10 K
1(
#1260000
b10111011101110111100 :
b10111011101110111100 M
b1100 f
b1 >
b1 d
b1 O
b1000000111001000 ,
b1000000111001000 =
b1000000111001000 N
b11 C
b11000000111001000 Q
0(
#1270000
07
b1 K
1(
#1280000
0(
#1290000
b1110 f
b1101 i
b1101 l
b1101 o
b11011101110111011110 :
b11011101110111011110 M
b1101 r
b1101 e
b1101 h
b1101 k
b1101 n
b1101 q
b1101 W
b1101 Z
b1101 ]
b1101 `
b11011101110111011101 5
b1101 c
13
04
09
b100 K
1(
#1300000
0(
#1310000
03
b11 K
1(
#1320000
0(
#1330000
b1100 f
b1011 i
b1011 l
b1011 o
b10111011101110111100 :
b10111011101110111100 M
b1011 r
b1011 e
b1011 h
b1011 k
b1011 n
b1011 q
b1011 W
b1011 Z
b1011 ]
b1011 `
b10111011101110111011 5
b1011 c
17
14
19
b10 K
1(
#1340000
b10111011101110111011 :
b10111011101110111011 M
b1011 f
b0 >
b0 d
b0 O
b1100000011100100 ,
b1100000011100100 =
b1100000011100100 N
b10 C
b1100000011100100 Q
0(
#1350000
07
b1 K
1(
#1360000
0(
#1370000
b1101 f
b1101 i
b1101 l
b1101 o
b11011101110111011101 :
b11011101110111011101 M
b1101 r
b1101 e
b1101 h
b1101 k
b1101 n
b1101 q
b1101 W
b1101 Z
b1101 ]
b1101 `
b11011101110111011101 5
b1101 c
13
04
09
b100 K
1(
#1380000
0(
#1390000
03
b11 K
1(
#1400000
0(
#1410000
b1011 f
b1011 i
b1011 l
b1011 o
b10111011101110111011 :
b10111011101110111011 M
b1011 r
b1011 e
b1011 h
b1011 k
b1011 n
b1011 q
b1011 W
b1011 Z
b1011 ]
b1011 `
b10111011101110111011 5
b1011 c
17
14
19
b10 K
1(
#1420000
b110000001110010 ,
b110000001110010 =
b110000001110010 N
b1 C
b110000001110010 Q
0(
#1430000
07
b1 K
1(
#1440000
0(
#1450000
b1101 f
b1101 i
b1101 l
b1101 o
b11011101110111011101 :
b11011101110111011101 M
b1101 r
b1101 e
b1101 h
b1101 k
b1101 n
b1101 q
b1101 W
b1101 Z
b1101 ]
b1101 `
b11011101110111011101 5
b1101 c
13
04
09
b100 K
1(
#1460000
0(
#1470000
03
b11 K
1(
#1480000
0(
#1490000
b1011 f
b1011 i
b1011 l
b1011 o
b10111011101110111011 :
b10111011101110111011 M
b1011 r
b1011 e
b1011 h
b1011 k
b1011 n
b1011 q
b1011 W
b1011 Z
b1011 ]
b1011 `
b10111011101110111011 5
b1011 c
17
14
19
b10 K
1(
#1500000
b11000000111001 ,
b11000000111001 =
b11000000111001 N
b0 C
b11000000111001 Q
0(
#1510000
07
b1 K
1(
#1520000
16
0(
#1530000
b1101 f
b1101 i
b1101 l
b1101 o
b11011101110111011101 :
b11011101110111011101 M
b1101 r
b1101 e
b1101 h
b1101 k
b1101 n
b1101 q
b10000 1
b1101 W
b1101 Z
b1101 ]
b1101 `
b11011101110111011101 5
b1101 c
b10100 $
b10100 +
1'
1&
04
09
1-
b101 K
1(
#1540000
0(
#1550000
b1 J
1(
b0 1
0'
0&
#1560000
0(
#1570000
b10 J
b11000000111001 !
b11000000111001 .
1(
b1000 1
b10000 $
b10000 +
1'
1&
#1580000
0(
#1590000
b11 J
1(
b0 1
0'
0&
#1600000
0(
#1610000
b100 J
1(
#1620000
0(
#1630000
b101 J
1(
#1640000
0(
#1650000
b110 J
1(
#1660000
0(
#1670000
b111 J
1(
#1680000
0(
#1690000
b1000 J
1(
#1700000
0(
#1710000
b1001 J
1(
#1720000
0(
#1730000
b1010 J
1(
#1740000
0(
#1750000
b1011 J
1(
#1760000
0(
#1770000
b1100 J
1(
#1780000
0(
#1790000
b1101 J
1(
#1800000
0(
#1810000
b1110 J
1(
#1820000
0(
#1830000
b1111 J
1(
#1840000
0(
#1850000
b10000 J
1(
#1860000
0(
#1870000
b10001 J
1(
#1880000
0(
#1890000
b10010 J
1(
#1900000
0(
#1910000
b10011 J
1(
#1920000
0(
#1930000
b10100 J
1(
#1940000
0(
#1950000
b10101 J
1(
#1960000
0(
#1970000
b10110 J
1(
#1980000
0(
#1990000
b10111 J
1(
#2000000
0(
