Calculadora_Verilog/div_TB.vcd
$date
	Fri Nov 21 15:48:03 2025
$end
$version
	Icarus Verilog
$end
$timescale
	1ps
$end
$scope module div_TB $end
$var wire 1 ! finalizado $end
$var wire 32 " cociente [31:0] $end
$var parameter 32 # PERIODO $end
$var reg 1 $ clock $end
$var reg 1 % comenzar $end
$var reg 16 & dividendo [15:0] $end
$var reg 16 ' divisor [15:0] $end
$var reg 1 ( rst $end
$scope module uut $end
$var wire 1 $ clock $end
$var wire 1 % comenzar $end
$var wire 16 ) dividendo [15:0] $end
$var wire 16 * divisor [15:0] $end
$var wire 1 ( rst $end
$var wire 16 + resta_AB [15:0] $end
$var parameter 3 , CARGAR_OPERANDOS $end
$var parameter 3 - COMPARAR $end
$var parameter 3 . DESPLAZAR $end
$var parameter 3 / REPOSO $end
$var parameter 3 0 TERMINADO $end
$var parameter 3 1 VERIFICAR_FIN $end
$var reg 32 2 cociente [31:0] $end
$var reg 5 3 contador_ciclos [4:0] $end
$var reg 3 4 estado_actual [2:0] $end
$var reg 1 ! finalizado $end
$var reg 32 5 registro_A [31:0] $end
$var reg 16 6 registro_B [15:0] $end
$upscope $end
$scope begin CASO_PRUEBA $end
$upscope $end
$upscope $end
$enddefinitions $end
$comment Show the parameter values. $end
$dumpall
b11 1
b100 0
b0 /
b10 .
b1 -
b101 ,
b10100 #
$end
#0
$dumpvars
bx 6
bx 5
bx 4
bx 3
b0 2
bx +
b11001 *
b1111101000 )
0(
b11001 '
b1111101000 &
0%
0$
b0 "
0!
$end
#10000
b0 4
1$
#20000
1(
0$
#30000
1$
#40000
0(
0$
#50000
b10000 3
1$
#60000
0$
#70000
1$
#80000
0$
#90000
1$
#100000
0$
#110000
1$
#120000
0$
#130000
b101 4
1%
1$
#140000
0$
#150000
b1111111111100111 +
b11001 6
b1111101000 5
b10 4
1$
#160000
0$
#170000
b1 4
b1111 3
b11111010000 5
1$
0%
#180000
0$
#190000
b11 4
1$
#200000
0$
#210000
b10 4
1$
#220000
0$
#230000
b1 4
b1110 3
b111110100000 5
1$
#240000
0$
#250000
b11 4
1$
#260000
0$
#270000
b10 4
1$
#280000
0$
#290000
b1 4
b1101 3
b1111101000000 5
1$
#300000
0$
#310000
b11 4
1$
#320000
0$
#330000
b10 4
1$
#340000
0$
#350000
b1 4
b1100 3
b11111010000000 5
1$
#360000
0$
#370000
b11 4
1$
#380000
0$
#390000
b10 4
1$
#400000
0$
#410000
b1 4
b1011 3
b111110100000000 5
1$
#420000
0$
#430000
b11 4
1$
#440000
0$
#450000
b10 4
1$
#460000
0$
#470000
b1 4
b1010 3
b1111101000000000 5
1$
#480000
0$
#490000
b11 4
1$
#500000
0$
#510000
b10 4
1$
#520000
0$
#530000
b1111111111101000 +
b1 4
b1001 3
b11111010000000000 5
1$
#540000
0$
#550000
b11 4
1$
#560000
0$
#570000
b10 4
1$
#580000
0$
#590000
b1111111111101010 +
b1 4
b1000 3
b111110100000000000 5
1$
#600000
0$
#610000
b11 4
1$
#620000
0$
#630000
b10 4
1$
#640000
0$
#650000
b1111111111101110 +
b1 4
b111 3
b1111101000000000000 5
1$
#660000
0$
#670000
b11 4
1$
#680000
0$
#690000
b10 4
1$
#700000
0$
#710000
b1111111111110110 +
b1 4
b110 3
b11111010000000000000 5
1$
#720000
0$
#730000
b11 4
1$
#740000
0$
#750000
b10 4
1$
#760000
0$
#770000
b110 +
b1 4
b101 3
b111110100000000000000 5
1$
#780000
0$
#790000
b1111111111101101 +
b11 4
b1100100000000000001 5
1$
#800000
0$
#810000
b10 4
1$
#820000
0$
#830000
b1111111111110011 +
b1 4
b100 3
b11001000000000000010 5
1$
#840000
0$
#850000
b11 4
1$
#860000
0$
#870000
b10 4
1$
#880000
0$
#890000
b0 +
b1 4
b11 3
b110010000000000000100 5
1$
#900000
0$
#910000
b1111111111100111 +
b11 4
b101 5
1$
#920000
0$
#930000
b10 4
1$
#940000
0$
#950000
b1 4
b10 3
b1010 5
1$
#960000
0$
#970000
b11 4
1$
#980000
0$
#990000
b10 4
1$
#1000000
0$
#1010000
b1 4
b1 3
b10100 5
1$
#1020000
0$
#1030000
b11 4
1$
#1040000
0$
#1050000
b10 4
1$
#1060000
0$
#1070000
b1 4
b0 3
b101000 5
1$
#1080000
0$
#1090000
b11 4
1$
#1100000
0$
#1110000
b100 4
b101000 "
b101000 2
1$
#1120000
0$
#1130000
b1 3
1!
1$
#1140000
0$
#1150000
b10 3
1$
#1160000
0$
#1170000
b11 3
1$
#1180000
0$
#1190000
b100 3
1$
#1200000
0$
#1210000
b101 3
1$
#1220000
0$
#1230000
b110 3
1$
#1240000
0$
#1250000
b111 3
1$
#1260000
0$
#1270000
b1000 3
1$
#1280000
0$
#1290000
b1001 3
1$
#1300000
0$
#1310000
b1010 3
1$
#1320000
0$
#1330000
b1011 3
1$
#1340000
0$
#1350000
b1100 3
1$
#1360000
0$
#1370000
b1101 3
1$
#1380000
0$
#1390000
b1110 3
1$
#1400000
0$
#1410000
b1111 3
1$
#1420000
0$
#1430000
b10000 3
1$
#1440000
0$
#1450000
b10001 3
1$
#1460000
0$
#1470000
b10010 3
1$
#1480000
0$
#1490000
b10011 3
1$
#1500000
0$
#1510000
b10100 3
1$
#1520000
0$
#1530000
b10101 3
1$
#1540000
0$
#1550000
b10110 3
1$
#1560000
0$
#1570000
b10111 3
1$
#1580000
0$
#1590000
b11000 3
1$
#1600000
0$
#1610000
b11001 3
1$
#1620000
0$
#1630000
b11010 3
1$
#1640000
0$
#1650000
b11011 3
1$
#1660000
0$
#1670000
b11100 3
1$
#1680000
0$
#1690000
b11101 3
1$
#1700000
0$
#1710000
b0 4
b11110 3
1$
#1720000
0$
#1730000
0!
b0 "
b0 2
b10000 3
1$
