Calculadora_Verilog/mult_TB.vcd
$date
	Fri Nov 21 15:51:46 2025
$end
$version
	Icarus Verilog
$end
$timescale
	1ps
$end
$scope module mult_TB $end
$var wire 32 ! product [31:0] $end
$var wire 1 " completed $end
$var parameter 32 # CLK_PERIOD $end
$var reg 1 $ clock $end
$var reg 16 % operand_A [15:0] $end
$var reg 16 & operand_B [15:0] $end
$var reg 1 ' rst $end
$var reg 1 ( start $end
$scope module uut $end
$var wire 1 $ clock $end
$var wire 16 ) operand_A [15:0] $end
$var wire 16 * operand_B [15:0] $end
$var wire 1 ' rst $end
$var wire 1 ( start $end
$var parameter 3 + ADD_OPERAND $end
$var parameter 3 , CHECK_BIT $end
$var parameter 3 - DONE $end
$var parameter 3 . IDLE $end
$var parameter 3 / LOAD_OPERANDS $end
$var parameter 3 0 SHIFT_OPERANDS $end
$var reg 1 " completed $end
$var reg 3 1 current_state [2:0] $end
$var reg 5 2 cycle_counter [4:0] $end
$var reg 32 3 product [31:0] $end
$var reg 16 4 temp_A [15:0] $end
$var reg 16 5 temp_B [15:0] $end
$upscope $end
$scope begin TEST_CASE $end
$upscope $end
$upscope $end
$enddefinitions $end
$comment Show the parameter values. $end
$dumpall
b11 0
b1 /
b0 .
b101 -
b10 ,
b100 +
b10100 #
$end
#0
$dumpvars
bx 5
bx 4
b0 3
bx 2
bx 1
b1100 *
b1011011 )
0(
0'
b1100 &
b1011011 %
0$
0"
b0 !
$end
#10000
b0 1
1$
#20000
1'
0$
#30000
1$
#40000
0'
0$
#50000
b0 2
1$
#60000
0$
#70000
1$
#80000
0$
#90000
1$
#100000
0$
#110000
1$
#120000
0$
#130000
b1 1
1(
1$
#140000
0$
#150000
b1100 5
b1011011 4
b10 1
1$
#160000
0$
#170000
b11 1
1$
0(
#180000
0$
#190000
b10 1
b10110110 4
b110 5
1$
#200000
0$
#210000
b11 1
1$
#220000
0$
#230000
b10 1
b101101100 4
b11 5
1$
#240000
0$
#250000
b100 1
1$
#260000
0$
#270000
b101101100 !
b101101100 3
b11 1
1$
#280000
0$
#290000
b10 1
b1011011000 4
b1 5
1$
#300000
0$
#310000
b100 1
1$
#320000
0$
#330000
b10001000100 !
b10001000100 3
b11 1
1$
#340000
0$
#350000
b101 1
b10110110000 4
b0 5
1$
#360000
0$
#370000
b1 2
1"
1$
#380000
0$
#390000
b10 2
1$
#400000
0$
#410000
b11 2
1$
#420000
0$
#430000
b100 2
1$
#440000
0$
#450000
b101 2
1$
#460000
0$
#470000
b110 2
1$
#480000
0$
#490000
b111 2
1$
#500000
0$
#510000
b1000 2
1$
#520000
0$
#530000
b1001 2
1$
#540000
0$
#550000
b1010 2
1$
#560000
0$
#570000
b1011 2
1$
#580000
0$
#590000
b1100 2
1$
#600000
0$
#610000
b1101 2
1$
#620000
0$
#630000
b1110 2
1$
#640000
0$
#650000
b1111 2
1$
#660000
0$
#670000
b10000 2
1$
#680000
0$
#690000
b10001 2
1$
#700000
0$
#710000
b10010 2
1$
#720000
0$
#730000
b10011 2
1$
#740000
0$
#750000
b10100 2
1$
#760000
0$
#770000
b10101 2
1$
#780000
0$
#790000
b10110 2
1$
#800000
0$
#810000
b10111 2
1$
#820000
0$
#830000
b11000 2
1$
#840000
0$
#850000
b11001 2
1$
#860000
0$
#870000
b11010 2
1$
#880000
0$
#890000
b11011 2
1$
#900000
0$
#910000
b11100 2
1$
#920000
0$
#930000
b11101 2
1$
#940000
0$
#950000
b0 1
b11110 2
1$
#960000
0$
#970000
0"
b0 !
b0 3
b0 2
1$
